<svg xmlns="http://www.w3.org/2000/svg" width="240" height="73" viewBox="0 0 240 73">
  <text id="MILTON_MODEL_Generalization" data-name="MILTON MODEL
Generalization" transform="translate(120 27)" fill="#707070" font-size="30" font-family="MaisonNeue-ExtendedBook, Maison Neue"><tspan x="-119.88" y="0">MILTON MODEL</tspan><tspan x="-107.55" y="37">Generalization</tspan></text>
</svg>
